HW7.knit
…
Question 9

Create a ‘longer’ data frame using the original iris data set with
three columns named “Species”, “Measure”, “Value”. The column “Species”
will retain the species names of the data set. The column “Measure” will
include whether the value corresponds to Sepal.Length, Sepal.Width,
Petal.Length, or Petal.Width and the column “Value” will include the
numerical values of those measurements.

iris%>%
  pivot_longer(cols = Sepal.Length:Petal.Width, names_to="Measure", values_to="Value", values_drop_na=T)

## # A tibble: 600 × 3
##    Species Measure      Value
##    <fct>   <chr>        <dbl>
##  1 setosa  Sepal.Length   5.1
##  2 setosa  Sepal.Width    3.5
##  3 setosa  Petal.Length   1.4
##  4 setosa  Petal.Width    0.2
##  5 setosa  Sepal.Length   4.9
##  6 setosa  Sepal.Width    3  
##  7 setosa  Petal.Length   1.4
##  8 setosa  Petal.Width    0.2
##  9 setosa  Sepal.Length   4.7
## 10 setosa  Sepal.Width    3.2
## # ℹ 590 more rows
